{
  "type": "service_account",
  "project_id": "symbolic-idea-415723",
  "private_key_id": "f7446dc89b9f6cdfd28a06303af929827b973881",
  "private_key": "-----BEGIN PRIVATE KEY-----\nMIIEuwIBADANBgkqhkiG9w0BAQEFAASCBKUwggShAgEAAoIBAQCxWo8KU1fztg+j\nMKd8sD0YQzZUdi1I16C0QmTWtI6Y2ziqex0wvRGvPUuAcev3qrjAWoxjuu9eARtS\nU5ky+Z9hvfAahqf3IGPlvGT2iVLC9zxbhbyIFAcvFzJJZHp2ZOg8jcLEw0hSsaCz\nObrzIZOtiA7tRK9x/Ishk36S9NZDJw2gMbn7VKdZVrd1B/yPPkGBNn3WaTa1ek6M\nFNYa6PG74E5u1kG3MLtBzNKlS/vcPZL60u8pwYm6VXay8k5jqunu7Y35WUostI/X\n8595JZZC0fuPXXkyd+u1j3uW+yD+enSMxvgrVXuQ/OlbzWwyiflMyD4Ev/YCCRu0\nBupyzeBhAgMBAAECgf8DwUtGBqo98cH7HiaSx3obylQ6w31xCay2boxXReqz3s77\nSzgixOkro93QRf1jsFdadMRI0reMorwlTEp/FAGZzWgBiDyEVFBWJQPC3zRM+0+S\nVk2vAzRFIE7dtarL2qUBTeFmOkWJGjmw/VtnRN9sR5pMFm6zFRyARCh4wCHuVSZx\nDxFybs2NWr/olQYMV1T9oQaVz9lA3hd/oyJ1BdaB3juY5cGvxTvnUyNT5QIiHTbn\niyfM1VE4NEIXE0BgdUMJ+miMVNnTjNK0bP6DIvaS8m1I/AqNIbLph1QDAviZNXfj\nCeVKhM4/Yl3peqrqSd/TuuNFakP6XiMQt522nNkCgYEA9HuspSIfnfI/HuD0i3dE\nq9N8GFwqgJQTx5hBts56PPcuK6mq9dvoYgDBfBXz5pbawSuNCom8GPsh12W0ynyn\nxI3wL/pWA2y+rkY79M1oh7zgqn8UL4GXImvfKX5Aipv2jcZJB9OawNeaDLgO4VZi\nVdCtv5inWpkdyGBe1XDwvssCgYEAubVXyO9oNIzVUfl0a/cA9DULwgjCLZIOWkfP\nOlQOoeRgorICoIbXDO0oLMq51lpMPGWm/4PN7ZFbWUZk0yzcFW76uCHjbHkARygw\nqi0XixR0AwXAuJj4kHUEy71jGQ644DNW7Rb6nAEv8C/O+Os6em3vJhEgzJvHxxbG\n39C6bAMCgYBvfvd9V9KTdabTrkPYVsw6kHhHo8C+YsmifQ17ES8uHowv3XDaLzAL\ngcy7ikdxIdshvXrVE3t06RLF6NxKfA8G1LR1LPWNGkrbr6woOIUzYjATkWDjSXZj\nfE6J3coRbI9EmOk1aItq5uiaZFZk7cBq4oBaoIOyDaJHf6vAK4GfgQKBgGN1+Fop\nvsnGU8nfrLbWR7CDaJS3VChL/Vvk8dvvgRa71fXNGRMYpLzLl6TFvtpK6mG+n75h\nvTzriN07kmx3rjfchHNx0vgZpkh2AfpixCU9AxVLU3iKlTXpNnRYLmcRN3r8hCXf\nFMHQ8PfW4yb19Q/1KQxeSA7NsCW00Ta19+I5AoGBALSBuln8IPDQU7CFbLxUGxYO\nJ2LTo1kH6kBC4Ytc9ZoFoe70y3PD8+rcV2lvv919uK5Se9mQ/mtjIca14QCNY1Q6\nKK1WC2euc0awC9E266NfsmHt5jPSx+I9RWBiq9auCYnjmHJGkcH+2wD6VHBLy/YB\nlRA6x5UuQf8czClZVMrm\n-----END PRIVATE KEY-----\n",
  "client_email": "mediscanai-creds@symbolic-idea-415723.iam.gserviceaccount.com",
  "client_id": "108809756018172327654",
  "auth_uri": "https://accounts.google.com/o/oauth2/auth",
  "token_uri": "https://oauth2.googleapis.com/token",
  "auth_provider_x509_cert_url": "https://www.googleapis.com/oauth2/v1/certs",
  "client_x509_cert_url": "https://www.googleapis.com/robot/v1/metadata/x509/mediscanai-creds%40symbolic-idea-415723.iam.gserviceaccount.com",
  "universe_domain": "googleapis.com"
}
